%YAML 1.1
%TAG !u! tag:unity3d.com,2011:
--- !u!74 &7400000
AnimationClip:
  m_ObjectHideFlags: 0
  m_CorrespondingSourceObject: {fileID: 0}
  m_PrefabInstance: {fileID: 0}
  m_PrefabAsset: {fileID: 0}
  m_Name: Ice_Anim_Default
  serializedVersion: 6
  m_Legacy: 0
  m_Compressed: 0
  m_UseHighQualityCurve: 1
  m_RotationCurves: []
  m_CompressedRotationCurves: []
  m_EulerCurves: []
  m_PositionCurves: []
  m_ScaleCurves: []
  m_FloatCurves: []
  m_PPtrCurves:
  - curve:
    - time: 0
      value: {fileID: 21300000, guid: 248ca4c98b51d0e44961934eac058fad, type: 3}
    - time: 0.16666667
      value: {fileID: 21300000, guid: 121e53a1a2b899b41aab8a2f822f891d, type: 3}
    - time: 0.33333334
      value: {fileID: 21300000, guid: 1af66d434164f92498cd1a6256a55b29, type: 3}
    - time: 0.5
      value: {fileID: 21300000, guid: 6efc53259ad20334eb7c824b786df86f, type: 3}
    - time: 0.6666667
      value: {fileID: 21300000, guid: 9db0b9fdd3bed944d9ac9042e265f3c4, type: 3}
    - time: 0.8333333
      value: {fileID: 21300000, guid: 0d88f120fb1c55e48b5be9100f2c1966, type: 3}
    - time: 2
      value: {fileID: 21300000, guid: 0d88f120fb1c55e48b5be9100f2c1966, type: 3}
    attribute: m_Sprite
    path: View
    classID: 212
    script: {fileID: 0}
  m_SampleRate: 60
  m_WrapMode: 0
  m_Bounds:
    m_Center: {x: 0, y: 0, z: 0}
    m_Extent: {x: 0, y: 0, z: 0}
  m_ClipBindingConstant:
    genericBindings:
    - serializedVersion: 2
      path: 1590625456
      attribute: 0
      script: {fileID: 0}
      typeID: 212
      customType: 23
      isPPtrCurve: 1
    pptrCurveMapping:
    - {fileID: 21300000, guid: 248ca4c98b51d0e44961934eac058fad, type: 3}
    - {fileID: 21300000, guid: 121e53a1a2b899b41aab8a2f822f891d, type: 3}
    - {fileID: 21300000, guid: 1af66d434164f92498cd1a6256a55b29, type: 3}
    - {fileID: 21300000, guid: 6efc53259ad20334eb7c824b786df86f, type: 3}
    - {fileID: 21300000, guid: 9db0b9fdd3bed944d9ac9042e265f3c4, type: 3}
    - {fileID: 21300000, guid: 0d88f120fb1c55e48b5be9100f2c1966, type: 3}
    - {fileID: 21300000, guid: 0d88f120fb1c55e48b5be9100f2c1966, type: 3}
  m_AnimationClipSettings:
    serializedVersion: 2
    m_AdditiveReferencePoseClip: {fileID: 0}
    m_AdditiveReferencePoseTime: 0
    m_StartTime: 0
    m_StopTime: 2.0166667
    m_OrientationOffsetY: 0
    m_Level: 0
    m_CycleOffset: 0
    m_HasAdditiveReferencePose: 0
    m_LoopTime: 1
    m_LoopBlend: 0
    m_LoopBlendOrientation: 0
    m_LoopBlendPositionY: 0
    m_LoopBlendPositionXZ: 0
    m_KeepOriginalOrientation: 0
    m_KeepOriginalPositionY: 1
    m_KeepOriginalPositionXZ: 0
    m_HeightFromFeet: 0
    m_Mirror: 0
  m_EditorCurves: []
  m_EulerEditorCurves: []
  m_HasGenericRootTransform: 0
  m_HasMotionFloatCurves: 0
  m_Events: []
