%YAML 1.1
%TAG !u! tag:unity3d.com,2011:
--- !u!74 &7400000
AnimationClip:
  m_ObjectHideFlags: 0
  m_CorrespondingSourceObject: {fileID: 0}
  m_PrefabInstance: {fileID: 0}
  m_PrefabAsset: {fileID: 0}
  m_Name: Parasite_Anim_Default
  serializedVersion: 6
  m_Legacy: 0
  m_Compressed: 0
  m_UseHighQualityCurve: 1
  m_RotationCurves: []
  m_CompressedRotationCurves: []
  m_EulerCurves: []
  m_PositionCurves:
  - curve:
      serializedVersion: 2
      m_Curve:
      - serializedVersion: 3
        time: 0
        value: {x: 0, y: -1.03, z: 0}
        inSlope: {x: 0, y: 0, z: 0}
        outSlope: {x: 0, y: 3.4811454, z: 0}
        tangentMode: 0
        weightedMode: 3
        inWeight: {x: 0.33333334, y: 0.33333334, z: 0}
        outWeight: {x: 0.33333334, y: 0.33333334, z: 0}
      - serializedVersion: 3
        time: 0.5
        value: {x: 0, y: 0.7105727, z: 0}
        inSlope: {x: 0, y: 3.4811454, z: 0}
        outSlope: {x: 0, y: 0, z: 0}
        tangentMode: 0
        weightedMode: 3
        inWeight: {x: 0.33333334, y: 0.33333334, z: 0.33333334}
        outWeight: {x: 0.33333334, y: 0.32396165, z: 0.33333334}
      - serializedVersion: 3
        time: 4.1666665
        value: {x: 0, y: 3.55, z: 0}
        inSlope: {x: 0, y: 0, z: 0}
        outSlope: {x: 0, y: 0, z: 0}
        tangentMode: 0
        weightedMode: 3
        inWeight: {x: 0.33333334, y: 0.33333334, z: 0.33333334}
        outWeight: {x: 0.33333334, y: 0.28604856, z: 0.33333334}
      - serializedVersion: 3
        time: 4.5333333
        value: {x: 0, y: 2.8383875, z: 0}
        inSlope: {x: 0, y: -2.9863234, z: 0}
        outSlope: {x: 0, y: -2.9863234, z: 0}
        tangentMode: 0
        weightedMode: 3
        inWeight: {x: 0.33333334, y: 0.34360856, z: 0.33333334}
        outWeight: {x: 0.33333334, y: 0.45991278, z: 0.33333334}
      - serializedVersion: 3
        time: 4.883333
        value: {x: 0, y: 1.810243, z: 0}
        inSlope: {x: 0, y: 0, z: 0}
        outSlope: {x: 0, y: 0, z: 0}
        tangentMode: 0
        weightedMode: 3
        inWeight: {x: 0.33333334, y: 0.12589264, z: 0.33333334}
        outWeight: {x: 0.33333334, y: 0.33333334, z: 0.33333334}
      - serializedVersion: 3
        time: 5.5833335
        value: {x: 0, y: 3.455639, z: 0}
        inSlope: {x: 0, y: 0, z: 0}
        outSlope: {x: 0, y: 0, z: 0}
        tangentMode: 0
        weightedMode: 3
        inWeight: {x: 0.33333334, y: 0.6284869, z: 0.33333334}
        outWeight: {x: 0.33333334, y: 0.33333328, z: 0.33333334}
      - serializedVersion: 3
        time: 6
        value: {x: 0, y: -1.03, z: 0}
        inSlope: {x: 0, y: 0, z: 0}
        outSlope: {x: 0, y: 0, z: 0}
        tangentMode: 0
        weightedMode: 3
        inWeight: {x: 0.33333334, y: 0.33333334, z: 0}
        outWeight: {x: 0.33333334, y: 0.33333334, z: 0}
      m_PreInfinity: 2
      m_PostInfinity: 2
      m_RotationOrder: 4
    path: View/Part3
  - curve:
      serializedVersion: 2
      m_Curve:
      - serializedVersion: 3
        time: 0
        value: {x: 0.26, y: 5.14, z: 0}
        inSlope: {x: 0, y: 0, z: 0}
        outSlope: {x: 0, y: 0, z: 0}
        tangentMode: 0
        weightedMode: 0
        inWeight: {x: 0, y: 0.33333334, z: 0}
        outWeight: {x: 0, y: 0.33333334, z: 0}
      - serializedVersion: 3
        time: 2.6166666
        value: {x: 0.26, y: -22.6, z: 0}
        inSlope: {x: 0, y: 0, z: 0}
        outSlope: {x: 0, y: Infinity, z: 0}
        tangentMode: 0
        weightedMode: 0
        inWeight: {x: 0.33333334, y: 0.33333334, z: 0.33333334}
        outWeight: {x: 0.33333334, y: 0.33333334, z: 0.33333334}
      - serializedVersion: 3
        time: 3.3833334
        value: {x: 0.26, y: 5.14, z: 0}
        inSlope: {x: 0, y: 0, z: 0}
        outSlope: {x: 0, y: 0, z: 0}
        tangentMode: 0
        weightedMode: 0
        inWeight: {x: 0, y: 0.33333334, z: 0}
        outWeight: {x: 0, y: 0.33333334, z: 0}
      - serializedVersion: 3
        time: 6
        value: {x: 0.26, y: -22.6, z: 0}
        inSlope: {x: 0, y: 0, z: 0}
        outSlope: {x: 0, y: 0, z: 0}
        tangentMode: 0
        weightedMode: 0
        inWeight: {x: 0.33333334, y: 0.33333334, z: 0.33333334}
        outWeight: {x: 0.33333334, y: 0.33333334, z: 0.33333334}
      m_PreInfinity: 2
      m_PostInfinity: 2
      m_RotationOrder: 4
    path: View/Particles
  m_ScaleCurves: []
  m_FloatCurves: []
  m_PPtrCurves:
  - curve:
    - time: 0
      value: {fileID: 21300000, guid: f8a689adb3eb0bc46bd1de642ae37266, type: 3}
    - time: 0.21666667
      value: {fileID: 21300000, guid: d9f95d160f6dfe64fbdd6f416c92fb81, type: 3}
    - time: 0.45
      value: {fileID: 21300000, guid: 7c9523820d5716c4c99f413db0e3ccfa, type: 3}
    - time: 0.6666667
      value: {fileID: 21300000, guid: a0d0bf6236aa60745afb9458007972c4, type: 3}
    - time: 0.8333333
      value: {fileID: 21300000, guid: f8a689adb3eb0bc46bd1de642ae37266, type: 3}
    - time: 1.05
      value: {fileID: 21300000, guid: d9f95d160f6dfe64fbdd6f416c92fb81, type: 3}
    - time: 1.2833333
      value: {fileID: 21300000, guid: 7c9523820d5716c4c99f413db0e3ccfa, type: 3}
    - time: 1.5
      value: {fileID: 21300000, guid: a0d0bf6236aa60745afb9458007972c4, type: 3}
    - time: 1.6666666
      value: {fileID: 21300000, guid: f8a689adb3eb0bc46bd1de642ae37266, type: 3}
    - time: 1.8833333
      value: {fileID: 21300000, guid: d9f95d160f6dfe64fbdd6f416c92fb81, type: 3}
    - time: 2.1166666
      value: {fileID: 21300000, guid: 7c9523820d5716c4c99f413db0e3ccfa, type: 3}
    - time: 2.3333333
      value: {fileID: 21300000, guid: f8a689adb3eb0bc46bd1de642ae37266, type: 3}
    - time: 2.55
      value: {fileID: 21300000, guid: d9f95d160f6dfe64fbdd6f416c92fb81, type: 3}
    - time: 2.8333333
      value: {fileID: 21300000, guid: 7c9523820d5716c4c99f413db0e3ccfa, type: 3}
    - time: 3.05
      value: {fileID: 21300000, guid: a0d0bf6236aa60745afb9458007972c4, type: 3}
    - time: 3.2166667
      value: {fileID: 21300000, guid: f8a689adb3eb0bc46bd1de642ae37266, type: 3}
    - time: 3.4333334
      value: {fileID: 21300000, guid: d9f95d160f6dfe64fbdd6f416c92fb81, type: 3}
    - time: 3.6666667
      value: {fileID: 21300000, guid: 7c9523820d5716c4c99f413db0e3ccfa, type: 3}
    - time: 3.8833334
      value: {fileID: 21300000, guid: a0d0bf6236aa60745afb9458007972c4, type: 3}
    - time: 4.1666665
      value: {fileID: 21300000, guid: 7c9523820d5716c4c99f413db0e3ccfa, type: 3}
    - time: 4.383333
      value: {fileID: 21300000, guid: a0d0bf6236aa60745afb9458007972c4, type: 3}
    - time: 4.55
      value: {fileID: 21300000, guid: f8a689adb3eb0bc46bd1de642ae37266, type: 3}
    - time: 4.766667
      value: {fileID: 21300000, guid: d9f95d160f6dfe64fbdd6f416c92fb81, type: 3}
    - time: 5
      value: {fileID: 21300000, guid: 7c9523820d5716c4c99f413db0e3ccfa, type: 3}
    - time: 5.2166667
      value: {fileID: 21300000, guid: a0d0bf6236aa60745afb9458007972c4, type: 3}
    attribute: m_Sprite
    path: View/Part1
    classID: 212
    script: {fileID: 0}
  m_SampleRate: 60
  m_WrapMode: 0
  m_Bounds:
    m_Center: {x: 0, y: 0, z: 0}
    m_Extent: {x: 0, y: 0, z: 0}
  m_ClipBindingConstant:
    genericBindings:
    - serializedVersion: 2
      path: 4160839784
      attribute: 1
      script: {fileID: 0}
      typeID: 4
      customType: 0
      isPPtrCurve: 0
    - serializedVersion: 2
      path: 4127687192
      attribute: 1
      script: {fileID: 0}
      typeID: 4
      customType: 0
      isPPtrCurve: 0
    - serializedVersion: 2
      path: 370082116
      attribute: 0
      script: {fileID: 0}
      typeID: 212
      customType: 23
      isPPtrCurve: 1
    pptrCurveMapping:
    - {fileID: 21300000, guid: f8a689adb3eb0bc46bd1de642ae37266, type: 3}
    - {fileID: 21300000, guid: d9f95d160f6dfe64fbdd6f416c92fb81, type: 3}
    - {fileID: 21300000, guid: 7c9523820d5716c4c99f413db0e3ccfa, type: 3}
    - {fileID: 21300000, guid: a0d0bf6236aa60745afb9458007972c4, type: 3}
    - {fileID: 21300000, guid: f8a689adb3eb0bc46bd1de642ae37266, type: 3}
    - {fileID: 21300000, guid: d9f95d160f6dfe64fbdd6f416c92fb81, type: 3}
    - {fileID: 21300000, guid: 7c9523820d5716c4c99f413db0e3ccfa, type: 3}
    - {fileID: 21300000, guid: a0d0bf6236aa60745afb9458007972c4, type: 3}
    - {fileID: 21300000, guid: f8a689adb3eb0bc46bd1de642ae37266, type: 3}
    - {fileID: 21300000, guid: d9f95d160f6dfe64fbdd6f416c92fb81, type: 3}
    - {fileID: 21300000, guid: 7c9523820d5716c4c99f413db0e3ccfa, type: 3}
    - {fileID: 21300000, guid: f8a689adb3eb0bc46bd1de642ae37266, type: 3}
    - {fileID: 21300000, guid: d9f95d160f6dfe64fbdd6f416c92fb81, type: 3}
    - {fileID: 21300000, guid: 7c9523820d5716c4c99f413db0e3ccfa, type: 3}
    - {fileID: 21300000, guid: a0d0bf6236aa60745afb9458007972c4, type: 3}
    - {fileID: 21300000, guid: f8a689adb3eb0bc46bd1de642ae37266, type: 3}
    - {fileID: 21300000, guid: d9f95d160f6dfe64fbdd6f416c92fb81, type: 3}
    - {fileID: 21300000, guid: 7c9523820d5716c4c99f413db0e3ccfa, type: 3}
    - {fileID: 21300000, guid: a0d0bf6236aa60745afb9458007972c4, type: 3}
    - {fileID: 21300000, guid: 7c9523820d5716c4c99f413db0e3ccfa, type: 3}
    - {fileID: 21300000, guid: a0d0bf6236aa60745afb9458007972c4, type: 3}
    - {fileID: 21300000, guid: f8a689adb3eb0bc46bd1de642ae37266, type: 3}
    - {fileID: 21300000, guid: d9f95d160f6dfe64fbdd6f416c92fb81, type: 3}
    - {fileID: 21300000, guid: 7c9523820d5716c4c99f413db0e3ccfa, type: 3}
    - {fileID: 21300000, guid: a0d0bf6236aa60745afb9458007972c4, type: 3}
  m_AnimationClipSettings:
    serializedVersion: 2
    m_AdditiveReferencePoseClip: {fileID: 0}
    m_AdditiveReferencePoseTime: 0
    m_StartTime: 0
    m_StopTime: 6
    m_OrientationOffsetY: 0
    m_Level: 0
    m_CycleOffset: 0
    m_HasAdditiveReferencePose: 0
    m_LoopTime: 1
    m_LoopBlend: 0
    m_LoopBlendOrientation: 0
    m_LoopBlendPositionY: 0
    m_LoopBlendPositionXZ: 0
    m_KeepOriginalOrientation: 0
    m_KeepOriginalPositionY: 1
    m_KeepOriginalPositionXZ: 0
    m_HeightFromFeet: 0
    m_Mirror: 0
  m_EditorCurves:
  - curve:
      serializedVersion: 2
      m_Curve:
      - serializedVersion: 3
        time: 0
        value: 0
        inSlope: 0
        outSlope: 0
        tangentMode: 136
        weightedMode: 0
        inWeight: 0
        outWeight: 0
      - serializedVersion: 3
        time: 4.5333333
        value: 0
        inSlope: 0
        outSlope: 0
        tangentMode: 136
        weightedMode: 0
        inWeight: 0.33333334
        outWeight: 0.33333334
      - serializedVersion: 3
        time: 6
        value: 0
        inSlope: 0
        outSlope: 0
        tangentMode: 136
        weightedMode: 0
        inWeight: 0
        outWeight: 0
      m_PreInfinity: 2
      m_PostInfinity: 2
      m_RotationOrder: 4
    attribute: m_LocalPosition.x
    path: View/Part3
    classID: 4
    script: {fileID: 0}
  - curve:
      serializedVersion: 2
      m_Curve:
      - serializedVersion: 3
        time: 0
        value: -1.03
        inSlope: 0
        outSlope: 3.4811454
        tangentMode: 65
        weightedMode: 3
        inWeight: 0.33333334
        outWeight: 0.33333334
      - serializedVersion: 3
        time: 0.5
        value: 0.7105727
        inSlope: 3.4811454
        outSlope: 0
        tangentMode: 5
        weightedMode: 3
        inWeight: 0.33333334
        outWeight: 0.32396165
      - serializedVersion: 3
        time: 4.1666665
        value: 3.55
        inSlope: 0
        outSlope: 0
        tangentMode: 136
        weightedMode: 3
        inWeight: 0.33333334
        outWeight: 0.33333334
      - serializedVersion: 3
        time: 4.883333
        value: 1.810243
        inSlope: 0
        outSlope: 0
        tangentMode: 0
        weightedMode: 3
        inWeight: 0.109604456
        outWeight: 0.33333334
      - serializedVersion: 3
        time: 5.5833335
        value: 3.455639
        inSlope: 0
        outSlope: 0
        tangentMode: 0
        weightedMode: 3
        inWeight: 0.6284869
        outWeight: 0.33333328
      - serializedVersion: 3
        time: 6
        value: -1.03
        inSlope: 0
        outSlope: 0
        tangentMode: 136
        weightedMode: 3
        inWeight: 0.33333334
        outWeight: 0.33333334
      m_PreInfinity: 2
      m_PostInfinity: 2
      m_RotationOrder: 4
    attribute: m_LocalPosition.y
    path: View/Part3
    classID: 4
    script: {fileID: 0}
  - curve:
      serializedVersion: 2
      m_Curve:
      - serializedVersion: 3
        time: 0
        value: 0
        inSlope: 0
        outSlope: 0
        tangentMode: 136
        weightedMode: 0
        inWeight: 0
        outWeight: 0
      - serializedVersion: 3
        time: 4.5333333
        value: 0
        inSlope: 0
        outSlope: 0
        tangentMode: 136
        weightedMode: 0
        inWeight: 0.33333334
        outWeight: 0.33333334
      - serializedVersion: 3
        time: 6
        value: 0
        inSlope: 0
        outSlope: 0
        tangentMode: 136
        weightedMode: 0
        inWeight: 0
        outWeight: 0
      m_PreInfinity: 2
      m_PostInfinity: 2
      m_RotationOrder: 4
    attribute: m_LocalPosition.z
    path: View/Part3
    classID: 4
    script: {fileID: 0}
  - curve:
      serializedVersion: 2
      m_Curve:
      - serializedVersion: 3
        time: 0
        value: 0.26
        inSlope: 0
        outSlope: 0
        tangentMode: 136
        weightedMode: 0
        inWeight: 0
        outWeight: 0
      - serializedVersion: 3
        time: 2.6166666
        value: 0.26
        inSlope: 0
        outSlope: 0
        tangentMode: 136
        weightedMode: 0
        inWeight: 0.33333334
        outWeight: 0.33333334
      - serializedVersion: 3
        time: 3.3833334
        value: 0.26
        inSlope: 0
        outSlope: 0
        tangentMode: 136
        weightedMode: 0
        inWeight: 0
        outWeight: 0
      - serializedVersion: 3
        time: 6
        value: 0.26
        inSlope: 0
        outSlope: 0
        tangentMode: 136
        weightedMode: 0
        inWeight: 0.33333334
        outWeight: 0.33333334
      m_PreInfinity: 2
      m_PostInfinity: 2
      m_RotationOrder: 4
    attribute: m_LocalPosition.x
    path: View/Particles
    classID: 4
    script: {fileID: 0}
  - curve:
      serializedVersion: 2
      m_Curve:
      - serializedVersion: 3
        time: 0
        value: 5.14
        inSlope: 0
        outSlope: 0
        tangentMode: 136
        weightedMode: 0
        inWeight: 0.33333334
        outWeight: 0.33333334
      - serializedVersion: 3
        time: 2.6166666
        value: -22.6
        inSlope: 0
        outSlope: Infinity
        tangentMode: 97
        weightedMode: 0
        inWeight: 0.33333334
        outWeight: 0.33333334
      - serializedVersion: 3
        time: 3.3833334
        value: 5.14
        inSlope: 0
        outSlope: 0
        tangentMode: 136
        weightedMode: 0
        inWeight: 0.33333334
        outWeight: 0.33333334
      - serializedVersion: 3
        time: 6
        value: -22.6
        inSlope: 0
        outSlope: 0
        tangentMode: 136
        weightedMode: 0
        inWeight: 0.33333334
        outWeight: 0.33333334
      m_PreInfinity: 2
      m_PostInfinity: 2
      m_RotationOrder: 4
    attribute: m_LocalPosition.y
    path: View/Particles
    classID: 4
    script: {fileID: 0}
  - curve:
      serializedVersion: 2
      m_Curve:
      - serializedVersion: 3
        time: 0
        value: 0
        inSlope: 0
        outSlope: 0
        tangentMode: 136
        weightedMode: 0
        inWeight: 0
        outWeight: 0
      - serializedVersion: 3
        time: 2.6166666
        value: 0
        inSlope: 0
        outSlope: 0
        tangentMode: 136
        weightedMode: 0
        inWeight: 0.33333334
        outWeight: 0.33333334
      - serializedVersion: 3
        time: 3.3833334
        value: 0
        inSlope: 0
        outSlope: 0
        tangentMode: 136
        weightedMode: 0
        inWeight: 0
        outWeight: 0
      - serializedVersion: 3
        time: 6
        value: 0
        inSlope: 0
        outSlope: 0
        tangentMode: 136
        weightedMode: 0
        inWeight: 0.33333334
        outWeight: 0.33333334
      m_PreInfinity: 2
      m_PostInfinity: 2
      m_RotationOrder: 4
    attribute: m_LocalPosition.z
    path: View/Particles
    classID: 4
    script: {fileID: 0}
  m_EulerEditorCurves: []
  m_HasGenericRootTransform: 0
  m_HasMotionFloatCurves: 0
  m_Events: []
