%YAML 1.1
%TAG !u! tag:unity3d.com,2011:
--- !u!687078895 &4343727234628468602
SpriteAtlas:
  m_ObjectHideFlags: 0
  m_CorrespondingSourceObject: {fileID: 0}
  m_PrefabInstance: {fileID: 0}
  m_PrefabAsset: {fileID: 0}
  m_Name: Atlas_Forest_Obstacles
  m_EditorData:
    serializedVersion: 2
    textureSettings:
      serializedVersion: 2
      anisoLevel: 1
      compressionQuality: 50
      maxTextureSize: 2048
      textureCompression: 0
      filterMode: 0
      generateMipMaps: 0
      readable: 0
      crunchedCompression: 0
      sRGB: 1
    platformSettings:
    - serializedVersion: 3
      m_BuildTarget: Android
      m_MaxTextureSize: 2048
      m_ResizeAlgorithm: 0
      m_TextureFormat: 65
      m_TextureCompression: 1
      m_CompressionQuality: 50
      m_CrunchedCompression: 0
      m_AllowsAlphaSplitting: 0
      m_Overridden: 1
      m_AndroidETC2FallbackOverride: 0
      m_ForceMaximumCompressionQuality_BC6H_BC7: 1
    packingSettings:
      serializedVersion: 2
      padding: 4
      blockOffset: 1
      allowAlphaSplitting: 0
      enableRotation: 1
      enableTightPacking: 0
    variantMultiplier: 1
    packables:
    - {fileID: 102900000, guid: d9a85087fbf6eaf4181ebf393cad5335, type: 3}
    totalSpriteSurfaceArea: 2730512
    bindAsDefault: 1
  m_MasterAtlas: {fileID: 0}
  m_PackedSprites:
  - {fileID: 21300000, guid: e8c892b0b8bdf97459286f2cdc5dfe24, type: 3}
  - {fileID: 21300000, guid: 383dfeb06c7f5134199d91f95fb64b3b, type: 3}
  - {fileID: 21300000, guid: 12303b315ef87b044b369f5f7144c912, type: 3}
  - {fileID: 21300000, guid: ffbd719147cfb4a4393366dde4dbb2ed, type: 3}
  - {fileID: 21300000, guid: f3cc1c12c2ca5114c92f8bcfa2678433, type: 3}
  - {fileID: 21300000, guid: 850bc3429c0163f49a679c7bdf03a55a, type: 3}
  - {fileID: 21300000, guid: 34f48f82e789d9943b9b269673bb280c, type: 3}
  - {fileID: 21300000, guid: d355ddd277af04c4ea1fd120b6d4ceed, type: 3}
  - {fileID: 21300000, guid: 749b745332cf5bc41ac8f22926746b8a, type: 3}
  - {fileID: 21300000, guid: 6b045d73db9145c44854e4c9c638be38, type: 3}
  - {fileID: 21300000, guid: f6d4f4e38e7c27f469055f61ad93c817, type: 3}
  - {fileID: 21300000, guid: 45007784a56f6624fb476a4a3b7c5006, type: 3}
  - {fileID: 21300000, guid: 03e9a6668757b864d9968a6684978313, type: 3}
  - {fileID: 21300000, guid: a8ac1db663738474db9bba47981c7f03, type: 3}
  - {fileID: 21300000, guid: a8fe6d872bb916245868f02888630874, type: 3}
  - {fileID: 21300000, guid: cdabf39785731574486146364a113059, type: 3}
  - {fileID: 21300000, guid: 8591f8d76ef33194ab694db7aba8b5c4, type: 3}
  - {fileID: 21300000, guid: 736cd37803f821b4eb6af2b2c7de236d, type: 3}
  - {fileID: 21300000, guid: b070e4c8cf71bc140be08b8e88a0be62, type: 3}
  - {fileID: 21300000, guid: 748b6d09365fad34d80309b9314d12de, type: 3}
  - {fileID: 21300000, guid: 656c436ab7cfacb429e78f282c9cf0e6, type: 3}
  - {fileID: 21300000, guid: 60e56caaad8dc6141aae9b74aa7f6cf2, type: 3}
  - {fileID: 21300000, guid: 4bed147b10038e54e8aa79dd6ebe70a7, type: 3}
  - {fileID: 21300000, guid: 4cc3b04c7cab0214c93448b705d84514, type: 3}
  - {fileID: 21300000, guid: 01fa647ca6208c14c95b4a1fed93d2b2, type: 3}
  - {fileID: 21300000, guid: 22a5c81d75830ec4bb7acf2d22212b11, type: 3}
  - {fileID: 21300000, guid: 22e3d2ad78b55bd418fcb8e830ff783c, type: 3}
  - {fileID: 21300000, guid: 5e8eb84e96bb2ff45b28941c8e6a4f87, type: 3}
  - {fileID: 21300000, guid: 35e0dd5ec56ecfc46be33efe3daad9f1, type: 3}
  - {fileID: 21300000, guid: 2518af0fdddf0484a9a2ad7cdd43ef5a, type: 3}
  - {fileID: 21300000, guid: 13e7eb5f21586e042925daa3b0335ab3, type: 3}
  - {fileID: 21300000, guid: 911f3c8f6d5dc3447827cbeb61761844, type: 3}
  - {fileID: 21300000, guid: ae4210ef871c7034eb5fdae3c0af14b3, type: 3}
  m_PackedSpriteNamesToIndex:
  - "\u0414\u0435\u0440\u0435\u0432\u043E"
  - 1
  - 4
  - 2
  - 1
  - 3
  - 1
  - ManTrap_Start
  - 6
  - "\u043E\u0441\u0442\u0430\u043D\u043E\u0432\u043A\u0430"
  - Pendulum_Stone_Part2
  - ManTrap_Centre
  - 1
  - 8
  - Layer 15 copy
  - 7
  - 4
  - ManTrap_RFront
  - 1
  - Layer 36 copy
  - 2
  - Pendulum_Stone_part1
  - Layer 113
  - 3
  - 2
  - ManTrap_LFRont
  - 5
  - 3
  - 1
  - ManTrap_RBack
  - ManTrap_LBack
  - 2
  - 2
  m_Tag: Atlas_Forest_Obstacles
  m_IsVariant: 0
