%YAML 1.1
%TAG !u! tag:unity3d.com,2011:
--- !u!114 &11400000
MonoBehaviour:
  m_ObjectHideFlags: 0
  m_CorrespondingSourceObject: {fileID: 0}
  m_PrefabInstance: {fileID: 0}
  m_PrefabAsset: {fileID: 0}
  m_GameObject: {fileID: 0}
  m_Enabled: 1
  m_EditorHideFlags: 0
  m_Script: {fileID: 11500000, guid: 2dbcfe24b4b0a5f48a049f63dc820380, type: 3}
  m_Name: DataLocation_Forest
  m_EditorClassIdentifier: 
  serializationData:
    SerializedFormat: 2
    SerializedBytes: 
    ReferencedUnityObjects: []
    SerializedBytesString: 
    Prefab: {fileID: 0}
    PrefabModificationsReferencedUnityObjects: []
    PrefabModifications: []
    SerializationNodes: []
  localizationNameKey: location.forest
  previewImage: {fileID: 21300000, guid: c3b850d0dbb491f4590a2c06dd18cbfe, type: 3}
  mainTheme: {fileID: 8300000, guid: 426451a47f1737e45950379547c8adee, type: 3}
  costToUnlock: 500
  costToUnlockDollars: 1
  characterToUnlock: {fileID: 11400000, guid: 9fa3815ba131a9f4b82f4c50081c6544, type: 2}
  segmentPrefabs:
  - {fileID: 1464934001006038858, guid: f291332b4288dc447a288191f7b9b889, type: 3}
  possibleObstacles:
  - {fileID: 6722044456679922189, guid: fbf77a0ffb1e4e544af3a0d4462c95b1, type: 3}
  - {fileID: 3567635295514751256, guid: f2b8374a916c5604bacb7ade009c0c2c, type: 3}
  - {fileID: 4695215609339356776, guid: a815aa9892edb214b89916f58e06b595, type: 3}
  - {fileID: 6464256159640335560, guid: 47b1a6fdf4fbeb24fa5d0f927b8b7ae9, type: 3}
  - {fileID: 299202692511492029, guid: fde7db4c0060b3c47af73ff6f5bbc2ef, type: 3}
  - {fileID: 8488303391870328984, guid: 6f0af860d472acc439d5262099fa76c2, type: 3}
  - {fileID: 4975467395793739081, guid: d1dcda1e30ae9684ab0ff51cf9cab13a, type: 3}
  - {fileID: 5771083765978247290, guid: 768eb94e20ef47b44b006a1308339332, type: 3}
  - {fileID: 6847735603430399158, guid: 54f4ab161b1ee514ba1e9a639a104829, type: 3}
  - {fileID: 6464256159640335560, guid: 7da528d3ec48c0f47b0b1b69c7038203, type: 3}
  - {fileID: 6722044456679922189, guid: a3b55393133ae844e9f53b19e1b88b37, type: 3}
  combos: []
