%YAML 1.1
%TAG !u! tag:unity3d.com,2011:
--- !u!114 &11400000
MonoBehaviour:
  m_ObjectHideFlags: 0
  m_CorrespondingSourceObject: {fileID: 0}
  m_PrefabInstance: {fileID: 0}
  m_PrefabAsset: {fileID: 0}
  m_GameObject: {fileID: 0}
  m_Enabled: 1
  m_EditorHideFlags: 0
  m_Script: {fileID: 11500000, guid: e02230d3367c4765a718894307b6b018, type: 3}
  m_Name: Console
  m_EditorClassIdentifier: 
  commandsDebug: {fileID: 11400000, guid: 3196a925d04b22c40b7382fa82d29958, type: 2}
