%YAML 1.1
%TAG !u! tag:unity3d.com,2011:
--- !u!687078895 &4343727234628468602
SpriteAtlas:
  m_ObjectHideFlags: 0
  m_CorrespondingSourceObject: {fileID: 0}
  m_PrefabInstance: {fileID: 0}
  m_PrefabAsset: {fileID: 0}
  m_Name: UI_Atlas_RGBA
  m_EditorData:
    serializedVersion: 2
    textureSettings:
      serializedVersion: 2
      anisoLevel: 1
      compressionQuality: 50
      maxTextureSize: 2048
      textureCompression: 0
      filterMode: 0
      generateMipMaps: 0
      readable: 0
      crunchedCompression: 0
      sRGB: 1
    platformSettings:
    - serializedVersion: 3
      m_BuildTarget: DefaultTexturePlatform
      m_MaxTextureSize: 1024
      m_ResizeAlgorithm: 0
      m_TextureFormat: -1
      m_TextureCompression: 1
      m_CompressionQuality: 50
      m_CrunchedCompression: 0
      m_AllowsAlphaSplitting: 0
      m_Overridden: 0
      m_AndroidETC2FallbackOverride: 0
      m_ForceMaximumCompressionQuality_BC6H_BC7: 1
    - serializedVersion: 3
      m_BuildTarget: Android
      m_MaxTextureSize: 2048
      m_ResizeAlgorithm: 0
      m_TextureFormat: 47
      m_TextureCompression: 1
      m_CompressionQuality: 100
      m_CrunchedCompression: 0
      m_AllowsAlphaSplitting: 0
      m_Overridden: 1
      m_AndroidETC2FallbackOverride: 0
      m_ForceMaximumCompressionQuality_BC6H_BC7: 1
    packingSettings:
      serializedVersion: 2
      padding: 4
      blockOffset: 1
      allowAlphaSplitting: 0
      enableRotation: 0
      enableTightPacking: 0
    variantMultiplier: 1
    packables:
    - {fileID: 21300000, guid: 342dc618d4be005419e1a47a1b7ba0ff, type: 3}
    - {fileID: 21300000, guid: 9afc2cfcf69ac3141affca5aeed569de, type: 3}
    - {fileID: 2800000, guid: daccbe1a3a0cf1d42975200b1ecbad61, type: 3}
    - {fileID: 2800000, guid: f4a8f4582bc279846aea8685bb37c2ed, type: 3}
    - {fileID: 2800000, guid: 112d09d113c3af44da2ddf8e7fc5a1b9, type: 3}
    - {fileID: 2800000, guid: e6608926049ee66449c4c93bd1fba849, type: 3}
    - {fileID: 2800000, guid: cb29426983fc1f948b45445a68f7ab35, type: 3}
    - {fileID: 2800000, guid: 869426966aae599438f0c17021202611, type: 3}
    - {fileID: 2800000, guid: 5dd32d8d866ca6b41b4c705e88e366a4, type: 3}
    - {fileID: 2800000, guid: a1d2e69c8ec65b94eb0c75552304cfc6, type: 3}
    - {fileID: 2800000, guid: a59b84bb06acc2549bfdb2754f223687, type: 3}
    - {fileID: 2800000, guid: c45de2bb73950c34bb585563c2f5a639, type: 3}
    - {fileID: 2800000, guid: 7ffa4a5441880ea40b008a36cebcda5a, type: 3}
    - {fileID: 2800000, guid: b380ca09ca1ef78409ec8c975453b783, type: 3}
    - {fileID: 2800000, guid: 7e96dcc687255e6488f8a38aa740bcd0, type: 3}
    - {fileID: 2800000, guid: 22dcbba3860226b47a60e5674d86465c, type: 3}
    - {fileID: 2800000, guid: 6ec5736269843e444a1e83c35d1284b2, type: 3}
    - {fileID: 2800000, guid: 88fe02c715561264d94e43a8dc181fd2, type: 3}
    - {fileID: 2800000, guid: 65f0ca11842946f49a2595e6b6f2b549, type: 3}
    - {fileID: 2800000, guid: 887c4d79e547d3049ae3b8b8ecd9959f, type: 3}
    - {fileID: 2800000, guid: f72a843d61106244495cd60436d055fd, type: 3}
    - {fileID: 2800000, guid: d73b06b092b372b499327f8efef5b7d5, type: 3}
    - {fileID: 2800000, guid: 058c5d0860830da4298fc1ca5a54230d, type: 3}
    - {fileID: 2800000, guid: a3a1013db2db4604fac2b7e94dd156de, type: 3}
    - {fileID: 2800000, guid: 661d90db5ce878e41a48474da07673aa, type: 3}
    - {fileID: 2800000, guid: cd98d12b87cc5944ba5390110de615f1, type: 3}
    - {fileID: 2800000, guid: 0151961c5a8e2fd41b11b83bf30909c3, type: 3}
    - {fileID: 2800000, guid: 41d3610fb222a104dac9c3268985ae98, type: 3}
    - {fileID: 2800000, guid: d994a6574b572be4583b085c73a6fbad, type: 3}
    - {fileID: 2800000, guid: 0e060c8fef02c55488a27d1d62e4a040, type: 3}
    - {fileID: 2800000, guid: ec711c68ef960374da7056da7e79cb37, type: 3}
    - {fileID: 2800000, guid: 5a5d20ff4e0854c4f8e7e2c9ccfa95eb, type: 3}
    - {fileID: 2800000, guid: d589fb0374cd0444ea745f76119c9f09, type: 3}
    - {fileID: 2800000, guid: ca47d4583c047ed4abf7fd6fc8de24b1, type: 3}
    - {fileID: 2800000, guid: a14585d196fb65b4fb967e21b3e64b09, type: 3}
    - {fileID: 2800000, guid: fadbfa2f7e72f0f49893445f069a0be0, type: 3}
    - {fileID: 2800000, guid: 1b1f5aae5ba06d34ea3e7a29b0baee0f, type: 3}
    - {fileID: 2800000, guid: 47d14cebc4927364ba64b2bdf96a9d88, type: 3}
    - {fileID: 2800000, guid: 3b5808f895e4996448cea466d5c81e75, type: 3}
    totalSpriteSurfaceArea: 12403107
    bindAsDefault: 1
  m_MasterAtlas: {fileID: 0}
  m_PackedSprites:
  - {fileID: 21300000, guid: d73b06b092b372b499327f8efef5b7d5, type: 3}
  - {fileID: 21300000, guid: 65f0ca11842946f49a2595e6b6f2b549, type: 3}
  - {fileID: 21300000, guid: a14585d196fb65b4fb967e21b3e64b09, type: 3}
  - {fileID: 21300000, guid: 112d09d113c3af44da2ddf8e7fc5a1b9, type: 3}
  - {fileID: 21300000, guid: 6ec5736269843e444a1e83c35d1284b2, type: 3}
  - {fileID: 21300000, guid: d589fb0374cd0444ea745f76119c9f09, type: 3}
  - {fileID: 21300000, guid: 22dcbba3860226b47a60e5674d86465c, type: 3}
  - {fileID: 21300000, guid: 7ffa4a5441880ea40b008a36cebcda5a, type: 3}
  - {fileID: 21300000, guid: e6608926049ee66449c4c93bd1fba849, type: 3}
  - {fileID: 21300000, guid: 869426966aae599438f0c17021202611, type: 3}
  - {fileID: 21300000, guid: 7e96dcc687255e6488f8a38aa740bcd0, type: 3}
  - {fileID: 21300000, guid: d994a6574b572be4583b085c73a6fbad, type: 3}
  - {fileID: 21300000, guid: 88fe02c715561264d94e43a8dc181fd2, type: 3}
  - {fileID: 21300000, guid: 058c5d0860830da4298fc1ca5a54230d, type: 3}
  - {fileID: 21300000, guid: 342dc618d4be005419e1a47a1b7ba0ff, type: 3}
  - {fileID: 21300000, guid: ca47d4583c047ed4abf7fd6fc8de24b1, type: 3}
  - {fileID: 21300000, guid: f4a8f4582bc279846aea8685bb37c2ed, type: 3}
  - {fileID: 21300000, guid: ec711c68ef960374da7056da7e79cb37, type: 3}
  - {fileID: 21300000, guid: 3b5808f895e4996448cea466d5c81e75, type: 3}
  - {fileID: 21300000, guid: b380ca09ca1ef78409ec8c975453b783, type: 3}
  - {fileID: 21300000, guid: cb29426983fc1f948b45445a68f7ab35, type: 3}
  - {fileID: 21300000, guid: 887c4d79e547d3049ae3b8b8ecd9959f, type: 3}
  - {fileID: 21300000, guid: daccbe1a3a0cf1d42975200b1ecbad61, type: 3}
  - {fileID: 21300000, guid: cd98d12b87cc5944ba5390110de615f1, type: 3}
  - {fileID: 21300000, guid: c45de2bb73950c34bb585563c2f5a639, type: 3}
  - {fileID: 21300000, guid: a59b84bb06acc2549bfdb2754f223687, type: 3}
  - {fileID: 21300000, guid: 661d90db5ce878e41a48474da07673aa, type: 3}
  - {fileID: 21300000, guid: 47d14cebc4927364ba64b2bdf96a9d88, type: 3}
  - {fileID: 21300000, guid: 0151961c5a8e2fd41b11b83bf30909c3, type: 3}
  - {fileID: 21300000, guid: a1d2e69c8ec65b94eb0c75552304cfc6, type: 3}
  - {fileID: 21300000, guid: 9afc2cfcf69ac3141affca5aeed569de, type: 3}
  - {fileID: 21300000, guid: a3a1013db2db4604fac2b7e94dd156de, type: 3}
  - {fileID: 21300000, guid: f72a843d61106244495cd60436d055fd, type: 3}
  - {fileID: 21300000, guid: 5dd32d8d866ca6b41b4c705e88e366a4, type: 3}
  - {fileID: 21300000, guid: 1b1f5aae5ba06d34ea3e7a29b0baee0f, type: 3}
  - {fileID: 21300000, guid: 41d3610fb222a104dac9c3268985ae98, type: 3}
  - {fileID: 21300000, guid: fadbfa2f7e72f0f49893445f069a0be0, type: 3}
  - {fileID: 21300000, guid: 0e060c8fef02c55488a27d1d62e4a040, type: 3}
  - {fileID: 21300000, guid: 5a5d20ff4e0854c4f8e7e2c9ccfa95eb, type: 3}
  m_PackedSpriteNamesToIndex:
  - Layer 42
  - Layer 62 copy 7
  - "c\u043B\u0451\u0437\u044B \u0431\u043E\u0433\u043E\u0432 copy"
  - + menu (1)
  - Locations
  - +
  - Revert Screen
  - "\u0421\u043B\u043E\u0439 1"
  - "\u0440\u0435\u0439\u0442\u0438\u043D\u0433 copy"
  - "\u043D\u0430\u0441\u0442\u0440\u043E\u0439\u043A\u0438 copy"
  - tap to try ESCAPE
  - Layer 41
  - Layer 73 copy
  - Layer 34 copy 6
  - Oval-Big-PNG
  - reset pROGRESS
  - 1 (1)
  - Layer 52
  - Halo1
  - watch video
  - "\u043F\u0440\u043E\u0437\u0440\u0430\u0447\u043A\u0430"
  - Layer 62 copy 3
  - 2 (1)
  - Change character
  - "\u0421\u043B\u043E\u0439 2"
  - "\u0432\u044B\u0445\u043E\u0434 \u0432 \u043C\u0435\u043D\u044E"
  - Group 11 copy
  - SkullDeathScreen
  - Buy
  - "\u043A\u0430\u043A \u0438\u0433\u0440\u0430\u0442\u044C"
  - bg-lose
  - Layer 34 copy 4
  - Layer 46
  - "\u043C\u0430\u0433\u0430\u0437\u0438\u043D"
  - achiv
  - shop
  - Group 10
  - Layer 38 copy
  - Layer 38
  m_Tag: UI_Atlas_RGBA
  m_IsVariant: 0
